"";"M1";"M2";"M3";"M4";"M5";"M6";"M7";"M8";"M9";"M10";"M11";"M12";"figure"
"Bruno 2-06rep07";78,9608549965526;53,4337434128737;27,0175869397051;14,5592460678101;9,01969621127147;11,4209099649534;7,40001871711416;17,97708;10,187012;4,17319583883336;7,35438610077077;39,8494755948697;"Bruno 2-06"
"Aline 1-11rep04";236,063477737834;133,948096477093;103,531134586648;38,4203866009286;19,630124436151;25,0718688193826;43,0202308676472;75,0584951626993;35,1144754339663;9,60765190597329;49,8773986509157;163,442717504099;"Aline 1-11"
"Evi 2-03rep03";70,8070618063337;48,0907890803119;22,6464437398858;15,6792134819599;7,58572187318281;9,18244852744174;7,63438187682258;14,0221544104336;9,9066687958876;3,02969952647601;9,5337863804498;41,197475;"Evi 2-03"
"Aline 1-11rep02";235,846474035798;134,392784701063;102,351236676106;38,9422725260627;19,5671429791337;24,4560611550317;42,3514573810394;75,5301857342567;34,5812263141446;10,187012;49,8899958852004;163,892141491768;"Aline 1-11"
"Aline 1-08rep06";335,166125913507;184,745537538271;115,133065453026;74,5749442753678;34,5750603961431;42,2028199279224;67,428363562672;89,5377951955447;46,6926079315211;17,1712746145234;48,2350085337277;163,441619;"Aline 1-08"
"Carole 2-13rep02";57,1016021635303;45,7935508208813;8,75838302953565;12,7557767104653;6,14764737391499;5,542933;4,87972780043529;11,018856762941;5,87320065818436;2,47071332267262;5,12425620776029;40,5993445864221;"Carole 2-13"
"Aline 1-08rep02";335,154909919499;183,006640062636;114,0081923904;74,1098930142004;32,9211881641664;42,2028199279224;67,428363562672;90,567067810614;46,6926079315211;17,0334875238857;48,4856082115948;163,443335409411;"Aline 1-08"
"Armance 1-07rep09";94,1050963496861;56,4811718813601;37,7878169335518;16,0323629236895;6,46265677497582;26,686613812014;18,964304682957;23,9638215040053;5,11329521936343;2,18125196480646;10,344417216132;40,748048;"Armance 1-07"
"Evi 2-03rep08";71,2324072894691;47,6708150821139;22,9774971595151;14,9246158936813;6,97054692842427;8,85014973425253;7,44989176548982;14,3886845832837;10,138428531236;2,65462224337739;9,81105992067162;40,748048;"Evi 2-03"
"Aline 1-08rep03";334,417178107227;183,154905166536;116,177048530019;73,9910882280775;31,7792879348326;39,5135259657587;67,3934064881637;90,4034944147289;46,6926079315211;19,2392321255587;49,5639176741535;163,443335409411;"Aline 1-08"
"Carole 2-13rep06";57,1210539166926;45,4955898980293;9,05074517129114;12,6275746957801;5,83486342956515;5,542933;4,76100449966287;10,699551335901;6,02224726769802;2,325661087072;4,97988190738543;40,298621;"Carole 2-13"
"Carole 2-13rep05";57,2125258641309;44,8687333595637;9,22998524819384;12,6275746957801;6,06125066462336;5,69471282990153;4,90724528061448;11,018856762941;6,32044863409078;2,32566108707201;4,87972780043526;40,1513273708314;"Carole 2-13"
"Carole 2-13rep04";56,6367185003938;45,9122426372087;8,72629387999469;12,7557767104653;6,46959840616593;5,70062123145259;4,73026513755382;10,8049578978431;6,3080085431785;2,586104304033;4,45414178593406;40,1499299620469;"Carole 2-13"
"Carole 2-13rep08";56,933924492874;45,7781105375302;8,61238898736611;12,4566881645819;5,8502284684895;4,94596631249043;4,76100449966286;10,9114030734688;6,03899385507431;2,36868826996082;4,92778255125384;40,2997348061692;"Carole 2-13"
"Evi 2-03rep04";71,2171250670381;48,0588112573454;22,8349411954477;15,9558892776449;7,02187240333779;9,18244852744174;7,67688908341824;14,2955782812724;9,99687478914751;2,90876462666491;9,66239016811886;40,5985153994281;"Evi 2-03"
"Aline 1-11rep07";235,226846011348;133,113115507682;102,338079524439;39,2631069692642;21,0373658856169;25,9381640488956;43,3144945901734;76,6114496368333;35,7852280082978;9,73758499999997;48,0970887710684;163,441619;"Aline 1-11"
"Evi 2-03rep05";71,3539181882547;47,93888;22,881577728934;15,4004817824381;6,80106461426011;8,76734694462499;7,63438187682258;14,5059676425206;10,1881134772157;2,76234147120518;9,5337863804498;40,897857;"Evi 2-03"
"Bruno 2-06rep08";78,6567157759793;53,8916925695066;26,5534075407202;14,7087722015415;9,68674771154183;11,8689956142564;7,91156065801869;17,8574590202114;10,0383209153568;3,55145292835508;7,04261653244092;39,8494755948697;"Bruno 2-06"
"Carole 2-13rep09";57,2695726548559;45,7935508208813;8,87294311800475;12,4377563315709;5,83486342956515;5,393124;4,87742766936221;10,8132630165926;6,3080085431785;2,22707089296702;4,73737653992162;40,298621;"Carole 2-13"
"Armance 1-07rep02";94,2541512206303;56,6375110102728;37,62622360395;16,3298681827883;6,48345937204152;26,9922395721286;18,8604711824453;24,1754781429076;5,29654798913877;1,9987013517827;10,3715011427195;40,897857;"Armance 1-07"
"Bruno 2-06rep04";78,3617070294312;53,8648253965439;26,5360754413281;15,1573841198274;9,78242446201267;11,700456936979;7,51438121113082;17,7673726628826;10,0383209153568;3,78990123193732;7,2157569690172;40,4495396810746;"Bruno 2-06"
"Aline 1-11rep08";236,063477737834;133,446944402293;102,194446907339;37,7699952927554;19,7139764543199;26,4178306518468;45,1511999145603;75,7217441019968;34,5568807642416;9,40819603755498;48,9389569672554;163,443335409411;"Aline 1-11"
"Armance 1-07rep08";94,1202389845925;56,1833684114138;37,6318895976216;16,3319295576697;6,67449113526904;26,8425791369329;18,8569010392738;23,862932609644;5,17220860806599;1,75346938892502;10,6153181709782;40,897857;"Armance 1-07"
"Evi 2-03rep07";70,8978115998623;48,4485641253826;22,2656697376317;15,7954392613589;7,56350020096973;8,81202974485788;7,24834092065357;14,0221544104336;9,76635193121003;3,12810375558676;9,68211290375903;40,8981313745375;"Evi 2-03"
"Aline 1-08rep04";334,432881478293;183,538036430964;115,34835781653;73,8868254644405;32,8939084211951;41,7085582686785;67,1766006929017;91,3354648239994;47,240220019187;18,4368567478631;49,2461627629335;163,29181;"Aline 1-08"
"Bruno 2-06rep01";78,5090641081769;53,2751641180592;27,2644148612011;14,8431918411768;9,36036554958319;11,8689956142564;8,15324386098698;17,7673726628825;10,1881134772157;3,08839165334079;7,19707133479641;40,1490914934302;"Bruno 2-06"
"Evi 2-03rep01";71,2930312288515;48,2387306221099;22,6464437398858;16,1661889856962;7,29002057521157;9,14325945118725;7,82025938896691;14,5777320505828;10,2802162471919;2,73375771570434;9,51375615768415;40,598239;"Evi 2-03"
"Evi 2-03rep06";70,8214818446051;48,028914928401;22,6924786781115;15,981187100894;7,06647639706133;8,56928432051545;7,41213996801787;14,2034417740106;10,1881134772157;2,76234147120518;9,64495426187937;40,8989544871061;"Evi 2-03"
"Bruno 2-06rep02";78,5114938952382;53,4337434128737;26,9997215981173;14,6084900382561;9,55494908435978;11,8500718209476;7,73368558462685;17,7382965772822;9,88852885153889;3,70000935855708;7,20486290504915;40,2988994544283;"Bruno 2-06"
"Aline 1-08rep08";334,422144210278;183,430094005986;113,903419002727;74,5315960218731;35,3590498545992;42,8966764394417;68,2356561246915;92,1583521210107;46,3045539357124;17,3843000852248;49,4655616320841;164,040855;"Aline 1-08"
"Carole 2-13rep07";57,2501713635706;45,3013102381775;9,22998524819382;12,7478568731736;5,96608582396081;5,39520427934448;4,65132217414403;10,9155159281469;6,02224726769802;2,51125644870471;5,0225128974094;40,4487074231227;"Carole 2-13"
"Bruno 2-06rep09";78,064864739441;53,5742621839544;26,8337987854199;15,3691184347875;9,05446389164443;11,5595870604392;7,5397248959344;17,437793340359;9,88852885153889;3,83990597124682;7,20486290504914;39,8503203675398;"Bruno 2-06"
"Bruno 2-06rep05";78,5114938952381;53,4337434128737;27,1662832651286;15,0175583533932;9,55494908435979;11,8500718209476;8,20674431059487;17,619601974553;9,88852885153889;3,45860933676715;7,49194794022095;40,298621;"Bruno 2-06"
"Armance 1-07rep01";94,1050963496861;56,4877277591834;37,6166789486665;16,0302630267706;6,46959840616594;27,2985542630302;18,5382206194002;24,0652200258424;5,34715310018275;2,36868826996081;10,0773698243403;41,047666;"Armance 1-07"
"Armance 1-07rep03";94,1050963496861;56,7825517151118;37,4765111999164;16,1821460029351;6,58137382377951;26,9993059844019;18,4332045592279;23,9638215040053;5,44489255095094;2,325661087072;10,0773698243403;40,7483233832606;"Armance 1-07"
"Armance 1-07rep04";94,2392682498189;56,18816166888;37,4821998248582;16,1800655453204;6,78289096079614;26,8425791369329;18,7572593897039;24,2861597923007;5,57523004244534;2,14493845566837;10,3194372231408;40,897857;"Armance 1-07"
"Bruno 2-06rep03";79,2604294792457;53,5742621839544;27,115429;15,1780990238391;9,36036554958319;11,8387030254097;7,73368558462685;17,8875960936515;10,187012;3,70000935855708;7,36505900007442;39,9992835402147;"Bruno 2-06"
"Carole 2-13rep03";57,2311556385116;45,3159224858987;9,16654817174183;12,891410459752;6,04642189460421;5,99423231999569;4,97988190738546;10,8132630165926;6,00918987867157;2,18125196480644;4,83583823273711;40,1490914934301;"Carole 2-13"
"Bruno 2-06rep06";78,5114938952381;53,2583110217332;26,9510513005999;14,868118722214;9,65425733060773;11,98472;7,790068;17,7382965772822;10,0383209153568;3,60165263261436;7,21575696901719;40,298621;"Bruno 2-06"
"Evi 2-03rep09";71,5517958459618;48,2387306221099;22,6924786781115;15,7890442025776;7,14229235059115;8,97479700217832;7,72206907700372;14,8341171357181;10,0996157009138;2,79866307937719;9,83048438721033;40,748048;"Evi 2-03"
"Aline 1-08rep01";334,885077240024;184,109105197743;115,547129116538;73,4438527007261;33,2953662123647;42,398858382368;68,22085399996;90,1790453503985;45,6698823908954;18,4915530181895;49,2461627629335;163,292909511895;"Aline 1-08"
"Aline 1-08rep07";335,610813846094;183,324658876235;115,092025651442;72,817191402426;34,9803213023706;41,9264514939474;66,2171031871858;90,2924581345524;46,6579883984884;18,7207310991664;49,090285778928;164,342180021672;"Aline 1-08"
"Aline 1-11rep05";235,735398207761;133,614595870318;102,344219739043;37,8732440742822;19,4826590100826;26,2234225171758;42,4699927977565;75,9040972622221;34,8089198320303;9,45697123167794;48,837734;162,842383;"Aline 1-11"
"Aline 1-11rep06";235,739825109514;134,392784701063;102,351236676106;39,1136352240086;20,4251812340873;26,96562;42,5926773131856;75,2430522930819;35,1681214273869;9,58777599999996;47,3455696180621;163,742333494041;"Aline 1-11"
"Aline 1-11rep01";235,41329653205;135,561583835143;101,442376475271;38,0320176456686;20,3833849120492;26,8262704824906;42,5924138546839;75,7915104660861;35,1732263023329;11,2606154857383;47,8125462686432;164,040855;"Aline 1-11"
"Aline 1-11rep09";235,190110713346;134,309429038687;101,292599544546;38,4195103867211;20,5778898802454;28,164092;42,8825482192952;75,9040972622222;34,7414790696681;9,91572632353578;48,5438953241443;164,046395787247;"Aline 1-11"
"Aline 1-08rep09";333,216471544904;183,367990689533;115,218315189173;74,0274772900616;32,8823076772542;41,5446584902476;68,2248015472336;89,7435937950674;45,0150494487065;17,8045963951482;49,6769896778253;163,441619;"Aline 1-08"
"Armance 1-07rep05";94,2692699125995;56,4877277591834;37,6211533073385;16,190465160028;6,50419543576952;27,3063633031706;18,4332045592279;24,1977477214159;5,59331517568195;2,11861919565549;10,0773698243403;40,5985153994281;"Armance 1-07"
"Armance 1-07rep06";94,2392682498188;56,7872943972055;37,1828231603724;16,6294738016235;7,23129144764128;27,148929104276;18,964304682957;24,3788545155395;5,29654798913877;2,32566108707203;10,4448141215696;40,5985153994281;"Armance 1-07"
"Carole 2-13rep01";56,9725419347825;45,6605446048548;8,87294311800475;12,4485780473637;6,04642189460419;5,6947128299015;4,76100449966287;10,9114030734688;6,02224726769802;2,5112564487047;4,78686055229322;39,9992835402147;"Carole 2-13"
"Aline 1-11rep03";235,920828483282;133,728092820135;102,344219739043;39,2696798028575;20,7716539747615;26,216575;42,3729135645988;74,6086421713058;34,9915471820541;9,95976381477088;48,2533835542212;163,893510846182;"Aline 1-11"
"Aline 1-08rep05";335,313539498976;183,500860033825;116,162366148427;72,4570862304049;34,1124007736167;41,9641723463974;67,2702464379268;90,7220594887846;46,4052571758998;17,3397041680634;49,1458008666223;163,441619;"Aline 1-08"
"Evi 2-03rep02";71,080384426965;48,2098769206979;22,7891940381142;15,6240085990708;7,43783203801115;9,18244852744174;7,86461580381624;14,2955782812724;9,85556510250772;2,88163365089492;9,83048438721033;41,047666;"Evi 2-03"
"Armance 1-07rep07";94,3737250111748;56,6349353126188;37,6211533073385;16,179372;6,35585758696653;26,8308713630593;18,5382206194001;24,0857280416717;5,64125875404223;1,89495061596866;10,1395352861687;41,197475;"Armance 1-07"
